__CFG_PLLEN$ON 0 0 ABS 0
__CFG_WRT$OFF 0 0 ABS 0
__size_of_SPIProcess 0 0 ABS 0
FLASH_WriteBlock@blockStartAddr 54 0 BANK0 1
_RA3 63 0 ABS 0
_RA5 65 0 ABS 0
I2C_MasterWrite@length 52 0 BANK0 1
__S0 800A 0 ABS 0
__S1 1E9 0 ABS 0
__S2 0 0 ABS 0
__size_of_FLASH_WriteWord 0 0 ABS 0
__size_of_MATHACC_HasOverflowOccured 0 0 ABS 0
__end_of_MATHACC_Initialize CF0 0 CODE 0
PID_Execution@i 61 0 BANK0 1
__size_of_TMR3_StartTimer 0 0 ABS 0
_PWM E10 0 CODE 0
_SMT1STATbits D9A 0 ABS 0
_SMT2STATbits DAC 0 ABS 0
__Hintentry 39 0 CODE 0
__Lintentry 4 0 CODE 0
__CFG_BOREN$ON 0 0 ABS 0
__pintentry 4 0 CODE 0
_cmd A3 0 BANK1 1
__size_of_MATHACC_LoadZ1 0 0 ABS 0
CRC_Initialize@seed 4E 0 BANK0 1
__size_of_PIN_MANAGER_IOC 0 0 ABS 0
_inq 3B 0 BANK0 1
__size_of_MATHACC_LoadZ2 0 0 ABS 0
__end_of_FLASH_EraseBlock E8A 0 CODE 0
__size_of_PWM3_LoadDutyValue 0 0 ABS 0
__CFG_PWRTE$ON 0 0 ABS 0
i1CRC_ReverseValue@mask 74 0 COMMON 1
_TMR3_DefaultInterruptHandler BC9 0 CODE 0
_SPI_xchgHandler 31 0 BANK0 1
__size_of_I2C_MasterWriteTRBBuild 0 0 ABS 0
i1CRC_ReverseValue@reverse 72 0 COMMON 1
GetAngle@Angle 5E 0 BANK0 1
__size_of_PWM3_Initialize 0 0 ABS 0
_LATA 10C 0 ABS 0
_PEIE 5E 0 ABS 0
_LATC 10E 0 ABS 0
_WPUA 20C 0 ABS 0
__size_of_MATHACC_PIDControllerModeResultGet 0 0 ABS 0
_WPUC 20E 0 ABS 0
_T2PR 1B 0 ABS 0
__size_of_TMR3_DefaultInterruptHandler 0 0 ABS 0
_PLLR 4D6 0 ABS 0
__end_of_PIN_MANAGER_Initialize 768 0 CODE 0
FLASH_WriteBlock@flashWordArray 50 0 BANK0 1
GetAngle@ReceiveData 60 0 BANK0 1
_I2C_MasterReadTRBBuild F46 0 CODE 0
CRC_CalculatedResultGet@xorValue 51 0 BANK0 1
_PID_Flag A2 0 BANK1 1
__size_of_SPI_setExchangeHandler 0 0 ABS 0
_I2C_Mode 3C 0 BANK0 1
__size_of_MATHACC_ClearResult 0 0 ABS 0
__end_of_TMR1_Initialize CFE 0 CODE 0
_main 54 0 CODE 0
___sp 0 0 STACK 2
btemp 7E 0 ABS 0
start 39 0 CODE 0
_TMR1_WriteTimer CFE 0 CODE 0
I2C_MasterReadTRBBuild@pdata 4B 0 BANK0 1
_TMR3_WriteTimer D93 0 CODE 0
_SMT1_GetCapturedPulseWidth CC6 0 CODE 0
_SMT2_GetCapturedPulseWidth CD4 0 CODE 0
I2C_MasterTRBInsert@count 4E 0 BANK0 1
__size_of_SMT1_GetCapturedPulseWidth 0 0 ABS 0
SPIProcess@byte 4A 0 BANK0 1
__size_of_CLC1_Initialize 0 0 ABS 0
_I2C_WaitForLastPacketToComplete BDF 0 CODE 0
__end_of_TMR3_ISR C6E 0 CODE 0
MATHACC_HasOverflowOccured@retVal 4B 0 BANK0 1
I2C_ISR@i2c_address 43 0 BANK0 1
_TMR1H 17 0 ABS 0
_TMR3H 494 0 ABS 0
_TMR1L 16 0 ABS 0
_IOCIE 5B 0 ABS 0
MATHACC_PIDControllerModeResultGet@setpoint 4B 0 BANK0 1
_TMR3L 493 0 ABS 0
__size_of_FVR_Initialize 0 0 ABS 0
_TRISA 8C 0 ABS 0
_TRISC 8E 0 ABS 0
reset_vec 0 0 CODE 0
_T1CON 18 0 ABS 0
_T2CON 1C 0 ABS 0
I2C_MasterRead@pflag 55 0 BANK0 1
_T3CON 495 0 ABS 0
I2C_MasterRead@pdata 58 0 BANK0 1
_GetAngle 43B 0 CODE 0
_T2HLT 1D 0 ABS 0
wtemp0 7E 0 ABS 0
_T2TMR 1A 0 ABS 0
__end_of_PWM E2D 0 CODE 0
__end_of_I2C_FunctionComplete D3C 0 CODE 0
_T2RST 1F 0 ABS 0
__size_of_SMT2_Initialize 0 0 ABS 0
__Hconfig 800A 0 CONFIG 0
__Lconfig 8007 0 CONFIG 0
TMR1_WriteTimer@timerVal 4B 0 BANK0 1
TMR3_WriteTimer@timerVal 4B 0 BANK0 1
__Hstringtext1 0 0 ABS 0
__Lstringtext1 0 0 ABS 0
_IOCAF3_InterruptHandler AA 0 BANK1 1
__end_ofi1_CRC_IsBusy BEC 0 CODE 0
i1_CRC_Initialize F71 0 CODE 0
__size_of_TMR3_CallBack 0 0 ABS 0
__pstringtext1 800 0 STRCODE 0
__end_of_MATHACC_ClearResult C1C 0 CODE 0
CRC_CalculatedResultGet@mask 56 0 BANK0 1
main@i 1E5 0 BANK3 1
__size_of_CWG_Initialize 0 0 ABS 0
__size_of_TMR3_Initialize 0 0 ABS 0
__Hbigram 0 0 ABS 0
__Lbigram 0 0 ABS 0
__size_of_SMT1_ManualTimerReset 0 0 ABS 0
__Hram 0 0 ABS 0
__Lram 0 0 ABS 0
__end_of_CRC_IsBusy BF1 0 CODE 0
__end_of_FLASH_ReadWord E6B 0 CODE 0
__size_of_FLASH_EraseBlock 0 0 ABS 0
__size_of_FLASH_WriteBlock 0 0 ABS 0
__end_of_SMT1_Initialize D5E 0 CODE 0
__CFG_STVREN$ON 0 0 ABS 0
FLASH_WriteWord@blockStartAddr 5F 0 BANK0 1
_TimerSet C23 0 CODE 0
__end_of_TMR2_Initialize C84 0 CODE 0
int$flags 7E 0 ABS 0
__CFG_WDTCPS$WDTCPS1F 0 0 ABS 0
I2C_MasterWrite@trBlock 150 0 BANK2 1
__size_of_CRC_ReverseValue 0 0 ABS 0
__Hfunctab 0 0 ENTRY 0
__Lfunctab 0 0 ENTRY 0
_I2C_Stop DAA 0 CODE 0
_ADCON0 9D 0 ABS 0
_ADCON1 9E 0 ABS 0
_INTERRUPT_InterruptManager 4 0 CODE 0
_ADCON2 9F 0 ABS 0
_PMCON2 196 0 ABS 0
__size_of_I2C_ISR 0 0 ABS 0
I2C_MasterWriteTRBBuild@pdata 4B 0 BANK0 1
__Hcommon 0 0 ABS 0
__Lcommon 0 0 ABS 0
_PIE1bits 90 0 ABS 0
_PIE2bits 91 0 ABS 0
__Heeprom_data 0 0 EEDATA 3
__Leeprom_data 0 0 EEDATA 3
_PIE5bits 94 0 ABS 0
I2C_MasterWrite@address 53 0 BANK0 1
_PIR1bits 10 0 ABS 0
_PIR2bits 11 0 ABS 0
_PIR4bits 13 0 ABS 0
_PIR5bits 14 0 ABS 0
_BCL1IE 48B 0 ABS 0
_MATHACC_LoadZ1 C9E 0 CODE 0
_SSP1IE 483 0 ABS 0
___int_sp 0 0 STACK 2
_TMR1IF 80 0 ABS 0
_SSP1IF 83 0 ABS 0
__CFG_CLKOUTEN$OFF 0 0 ABS 0
_ANSELA 18C 0 ABS 0
?_SMT1_GetCapturedPulseWidth 4B 0 BANK0 1
?_SMT2_GetCapturedPulseWidth 4B 0 BANK0 1
_ODCONA 28C 0 ABS 0
_ANSELC 18E 0 ABS 0
_ODCONC 28E 0 ABS 0
__end_of_ADC_Initialize C44 0 CODE 0
__end_of_PWM3_Initialize C79 0 CODE 0
__size_of_SPI_ISR 0 0 ABS 0
__size_of_ADC_GetConversion 0 0 ABS 0
__end_ofi1_CRC_Initialize F9F 0 CODE 0
_PMADRH 192 0 ABS 0
_PMDATH 194 0 ABS 0
_ADRESH 9C 0 ABS 0
?_GetAngle 59 0 BANK0 1
_T1GCON 19 0 ABS 0
_T3GCON 496 0 ABS 0
_PMADRL 191 0 ABS 0
_PMDATL 193 0 ABS 0
_OSCCON 99 0 ABS 0
__Habs1 0 0 ABS 0
__Labs1 0 0 ABS 0
_ADRESL 9B 0 ABS 0
_BORCON 116 0 ABS 0
_FVRCON 117 0 ABS 0
__Hsfr0 0 0 ABS 0
__Lsfr0 0 0 ABS 0
__Hsfr1 0 0 ABS 0
__Lsfr1 0 0 ABS 0
__Hsfr2 0 0 ABS 0
__Lsfr2 0 0 ABS 0
__Hsfr3 0 0 ABS 0
__Lsfr3 0 0 ABS 0
_RA1PPS E91 0 ABS 0
_RC1PPS EA1 0 ABS 0
_RC2PPS EA2 0 ABS 0
_RC4PPS EA4 0 ABS 0
__Hsfr4 0 0 ABS 0
_RC5PPS EA5 0 ABS 0
__Lsfr4 0 0 ABS 0
__Hsfr5 0 0 ABS 0
__Lsfr5 0 0 ABS 0
__Hsfr6 0 0 ABS 0
__Lsfr6 0 0 ABS 0
__Hsfr7 0 0 ABS 0
__Lsfr7 0 0 ABS 0
__end_of_CLC1_Initialize D93 0 CODE 0
__Hsfr8 0 0 ABS 0
__Lsfr8 0 0 ABS 0
__Hsfr9 0 0 ABS 0
__Lsfr9 0 0 ABS 0
__size_of_PWM 0 0 ABS 0
__end_of_SMT2_Initialize D6F 0 CODE 0
__end_of_GetAngle 4D3 0 CODE 0
PWM3_LoadDutyValue@dutyValue 4B 0 BANK0 1
__size_of_TMR3_Reload 0 0 ABS 0
__size_of_IOCAF3_ISR 0 0 ABS 0
__end_of_TMR3_Initialize E10 0 CODE 0
__end_of_TimeOut BD6 0 CODE 0
?_CRC_CalculatedResultGet 51 0 BANK0 1
_I2C_MasterWriteTRBBuild E8A 0 CODE 0
__end_of_TimerSet C2B 0 CODE 0
___stackhi 21EF 0 ABS 0
__end_ofi1_TMR3_WriteTimer D1B 0 CODE 0
__size_of_SMT2_GetCapturedPulseWidth 0 0 ABS 0
_MATHACC_Initialize CE2 0 CODE 0
__size_of_CLC2_Initialize 0 0 ABS 0
__end_of_SMT1_GetCapturedPulseWidth CD4 0 CODE 0
_i2c_state 3A 0 BANK0 1
_crcObj 40 0 BANK0 1
__Hcode 0 0 ABS 0
__Lcode 0 0 ABS 0
_md_receive_buf 140 0 BANK2 1
__end_of_I2C_MasterWrite EF6 0 CODE 0
_CWG1CLKCON 699 0 ABS 0
__end_of_FVR_Initialize BE7 0 CODE 0
I2C_MasterTRBInsert@ptrb_list 4B 0 BANK0 1
__HcstackBANK0 0 0 ABS 0
__LcstackBANK0 0 0 ABS 0
__pcstackBANK0 45 0 BANK0 1
SPIProcess@i 7B 0 COMMON 1
__Hinit 39 0 CODE 0
__Linit 39 0 CODE 0
__end_of_main 2F8 0 CODE 0
_i2c_tr_queue 3D 0 BANK0 1
_EndTransaction C84 0 CODE 0
__Htext 0 0 ABS 0
__Ltext 0 0 ABS 0
__end_of_CLC2_Initialize D4D 0 CODE 0
__size_of_SMT2_ManualTimerReset 0 0 ABS 0
_SPI_setExchangeHandler BF1 0 CODE 0
main@i_2281 1E7 0 BANK3 1
__size_of_I2C_MasterWrite 0 0 ABS 0
end_of_initialization 50 0 CODE 0
ADC_GetConversion@channel 4E 0 BANK0 1
__CFG_WDTCWS$WDTCWSSW 0 0 ABS 0
__size_of_I2C_Initialize 0 0 ABS 0
__size_of_I2C_Stop 0 0 ABS 0
_CWG1AS0 693 0 ABS 0
_CWG1AS1 694 0 ABS 0
CRC_CalculatedResultGet@reverse 55 0 BANK0 1
_CWG1OCON0 695 0 ABS 0
___stacklo 2139 0 ABS 0
_CRCCON0 799 0 ABS 0
_TMR3_StartTimer BCE 0 CODE 0
_CRCCON1 79A 0 ABS 0
__Hsfr10 0 0 ABS 0
__Lsfr10 0 0 ABS 0
__Hsfr20 0 0 ABS 0
__Lsfr20 0 0 ABS 0
__Hsfr30 0 0 ABS 0
__Hsfr11 0 0 ABS 0
__Lsfr30 0 0 ABS 0
__Lsfr11 0 0 ABS 0
__end_of_IOCAF3_SetInterruptHandler C3B 0 CODE 0
__Hsfr21 0 0 ABS 0
__HnvBANK1 0 0 ABS 0
__Lsfr21 0 0 ABS 0
__LnvBANK1 0 0 ABS 0
__Hsfr31 0 0 ABS 0
__end_of_I2C_MasterTRBInsert 728 0 CODE 0
__Hsfr12 0 0 ABS 0
__Lsfr31 0 0 ABS 0
__Lsfr12 0 0 ABS 0
__end_ofGetAngle@AS5601_ADDRESS 802 0 STRCODE 0
__size_of_SPI_Initialize 0 0 ABS 0
__Hsfr22 0 0 ABS 0
__Lsfr22 0 0 ABS 0
_PID_Reset DDA 0 CODE 0
__pnvBANK1 AA 0 BANK1 1
__Hsfr13 0 0 ABS 0
__Lsfr13 0 0 ABS 0
__Hsfr23 0 0 ABS 0
__Lsfr23 0 0 ABS 0
__end_of_SMT2_GetCapturedPulseWidth CE2 0 CODE 0
__Hsfr14 0 0 ABS 0
__Lsfr14 0 0 ABS 0
_PID1K1H 591 0 ABS 0
__Hsfr24 0 0 ABS 0
__Lsfr24 0 0 ABS 0
_PID1K2H 593 0 ABS 0
__Hsfr15 0 0 ABS 0
__Lsfr15 0 0 ABS 0
_PID1K3H 595 0 ABS 0
__Hsfr25 0 0 ABS 0
__Lsfr25 0 0 ABS 0
__Hsfr16 0 0 ABS 0
__Lsfr16 0 0 ABS 0
__Hsfr26 0 0 ABS 0
__Lsfr26 0 0 ABS 0
__Hsfr17 0 0 ABS 0
__Lsfr17 0 0 ABS 0
__Hsfr27 0 0 ABS 0
__Lsfr27 0 0 ABS 0
__Hsfr18 0 0 ABS 0
__Lsfr18 0 0 ABS 0
_PID1Z1H 59C 0 ABS 0
_PID1K1L 590 0 ABS 0
__Hsfr28 0 0 ABS 0
_SSP1ADD 212 0 ABS 0
__Lsfr28 0 0 ABS 0
_PID1Z2H 60D 0 ABS 0
_PID1K2L 592 0 ABS 0
__Hsfr19 0 0 ABS 0
__Lsfr19 0 0 ABS 0
_PID1K3L 594 0 ABS 0
__Hsfr29 0 0 ABS 0
__Lsfr29 0 0 ABS 0
_CWG1DBF 692 0 ABS 0
I2C_Stop@completion_code 71 0 COMMON 1
i1CRC_8BitDataWrite@data 70 0 COMMON 1
_MATHACC_HasOverflowOccured C2B 0 CODE 0
_IOCAFbits 393 0 ABS 0
__end_of_PID_Execution 558 0 CODE 0
FLASH_EraseBlock@GIEBitValue 4D 0 BANK0 1
_PID1Z1L 59B 0 ABS 0
__size_of_I2C_MasterReadTRBBuild 0 0 ABS 0
_IOCANbits 392 0 ABS 0
_PID1Z2L 60C 0 ABS 0
_PWM3DCH 618 0 ABS 0
_IOCAPbits 391 0 ABS 0
_CRCACCH 794 0 ABS 0
_T1CONbits 18 0 ABS 0
__Hstrings 0 0 ABS 0
_T3CONbits 495 0 ABS 0
__Lstrings 0 0 ABS 0
__size_of_IOCAF3_SetInterruptHandler 0 0 ABS 0
_SLRCONA 30C 0 ABS 0
?i1_CRC_ReverseValue 70 0 COMMON 1
_PWM3DCL 617 0 ABS 0
_CRCACCL 793 0 ABS 0
I2C_MasterRead@length 52 0 BANK0 1
_SLRCONC 30E 0 ABS 0
_PID1INH 58F 0 ABS 0
_CRC_Start BD6 0 CODE 0
_SMT1SIG D9C 0 ABS 0
_SMT2SIG DAE 0 ABS 0
_SSP1BUF 211 0 ABS 0
_SYSTEM_Initialize F9F 0 CODE 0
_SMT1CLK D9B 0 ABS 0
__end_of_TMR3_SetInterruptHandler BFB 0 CODE 0
_SMT2CLK DAD 0 ABS 0
_PID1Z1U 59D 0 ABS 0
_CWG1DBR 691 0 ABS 0
_PID1Z2U 60E 0 ABS 0
_CRCDATH 792 0 ABS 0
_PID1INL 58E 0 ABS 0
__end_of_ADC_GetConversion E4C 0 CODE 0
_OSCTUNE 98 0 ABS 0
_CLC1CON F10 0 ABS 0
_SMT1PRH D96 0 ABS 0
_CLC2CON F1A 0 ABS 0
_PID1CON 614 0 ABS 0
_SMT2PRH DA8 0 ABS 0
_CLC1POL F11 0 ABS 0
_I2C_BusCollisionISR BCA 0 CODE 0
_CLC2POL F1B 0 ABS 0
_PWM3CON 619 0 ABS 0
I2C_MasterWriteTRBBuild@length 4C 0 BANK0 1
_CRCDATL 791 0 ABS 0
__size_of_I2C_WaitForLastPacketToComplete 0 0 ABS 0
__Hbank0 0 0 ABS 0
_CWG1ISM 69A 0 ABS 0
__Lbank0 0 0 ABS 0
_SMT1WIN D9D 0 ABS 0
_SMT2WIN DAF 0 ABS 0
_CRCXORH 798 0 ABS 0
__Hbank1 0 0 ABS 0
_SMT1PRL D95 0 ABS 0
FLASH_WriteBlock@i 57 0 BANK0 1
__end_ofi1_CRC_CalculatedResultGet 685 0 CODE 0
__Lbank1 0 0 ABS 0
_SMT2PRL DA7 0 ABS 0
_DataCount A0 0 BANK1 1
__Hbank2 0 0 ABS 0
__Lbank2 0 0 ABS 0
__size_of_CRC_8BitDataWrite 0 0 ABS 0
__Hbank3 0 0 ABS 0
__Lbank3 0 0 ABS 0
___latbits 1 0 ABS 0
_TMR3_SetInterruptHandler BF6 0 CODE 0
__Hbank4 0 0 ABS 0
__Lbank4 0 0 ABS 0
__end_of_FLASH_WriteBlock 5BE 0 CODE 0
_CRCXORL 797 0 ABS 0
__Hbank5 0 0 ABS 0
__Lbank5 0 0 ABS 0
__Hpowerup 0 0 CODE 0
__Lpowerup 0 0 CODE 0
__Hbank6 0 0 ABS 0
__Lbank6 0 0 ABS 0
main@LED_Time 1E3 0 BANK3 1
__Hbank7 0 0 BANK7 1
_CRCCON0bits 799 0 ABS 0
__Lbank7 0 0 BANK7 1
__end_of_TMR1_Reload C23 0 CODE 0
_SMT1CPW D92 0 ABS 0
_SMT2CPW DA4 0 ABS 0
__Hbank8 0 0 BANK8 1
_CRCCON1bits 79A 0 ABS 0
__Lbank8 0 0 BANK8 1
_FLASH_EraseBlock E6B 0 CODE 0
__end_ofi1_CRC_8BitDataWrite C0E 0 CODE 0
__size_of_TMR1_WriteTimer 0 0 ABS 0
__Hbank9 0 0 BANK9 1
__Lbank9 0 0 BANK9 1
_I2C_ISR 2F8 0 CODE 0
_SMT1PRU D97 0 ABS 0
_SPI_DefaultExchangeHandler BCC 0 CODE 0
_SMT2PRU DA9 0 ABS 0
__ptext1 C1C 0 CODE 0
_SPI_ISR CB8 0 CODE 0
__ptext2 CFE 0 CODE 0
__end_of_CRC_8BitDataWrite C4E 0 CODE 0
__size_of_TMR3_StopTimer 0 0 ABS 0
__ptext3 F9F 0 CODE 0
__ptext4 DF5 0 CODE 0
FLASH_WriteBlock@GIEBitValue 56 0 BANK0 1
__ptext5 BF6 0 CODE 0
__ptext6 C79 0 CODE 0
GetAngle@status 63 0 BANK0 1
__ptext7 CF0 0 CODE 0
__HcstackBANK1 0 0 ABS 0
__LcstackBANK1 0 0 ABS 0
__ptext8 D5E 0 CODE 0
__ptext9 D4D 0 CODE 0
__size_of_FLASH_ReadWord 0 0 ABS 0
__pcstackBANK1 A5 0 BANK1 1
PID_Execution@actuary 58 0 BANK0 1
_SMT1_ManualTimerReset BDC 0 CODE 0
_SMT2_ManualTimerReset 2 0 CODE 0
__size_of_I2C_MasterTRBInsert 0 0 ABS 0
__Hclrtext 0 0 ABS 0
__Lclrtext 0 0 ABS 0
main@i_2269 1E1 0 BANK3 1
_IOCAF3_ISR C91 0 CODE 0
_TMR3_InterruptHandler 2D 0 BANK0 1
__size_of_CRC_IsBusy 0 0 ABS 0
MATHACC_PIDControllerModeResultGet@result 51 0 BANK0 1
_FLASH_ReadWord E4C 0 CODE 0
I2C_ISR@i2c_bytes_left 35 0 BANK0 1
__end_of_MATHACC_PIDControllerModeResultGet 7A7 0 CODE 0
_SMT1WINPPS E27 0 ABS 0
_SMT2WINPPS E2D 0 ABS 0
FLASH_ReadWord@flashAddr 4B 0 BANK0 1
CRC_ReverseValue@reverse 4D 0 BANK0 1
i1TMR3_WriteTimer@timerVal 70 0 COMMON 1
_PID1CONbits 614 0 ABS 0
__end_of__initialization 50 0 CODE 0
__end_of_I2C_ISR 43B 0 CODE 0
__end_of_SPI_ISR CC6 0 CODE 0
__size_of_IOCAF3_DefaultInterruptHandler 0 0 ABS 0
__end_of_CRC_Initialize 1000 0 CODE 0
__end_of_CRC_Start BD9 0 CODE 0
__end_of_TMR3_StopTimer BDC 0 CODE 0
__end_of_I2C_Stop DC2 0 CODE 0
_PIN_MANAGER_IOC BFB 0 CODE 0
_MATHACC_LoadZ2 CAB 0 CODE 0
__size_of_TimerSet 0 0 ABS 0
main@Buf 1A0 0 BANK3 1
_CCPTMRSbits 29E 0 ABS 0
_CRC_CalculatedResultGet 5BE 0 CODE 0
_CLC1_Initialize D81 0 CODE 0
_CLC2_Initialize D3C 0 CODE 0
_TMR1_Initialize CF0 0 CODE 0
_SMT1_Initialize D4D 0 CODE 0
_TMR2_Initialize C79 0 CODE 0
_PWM3_Initialize C6E 0 CODE 0
_SMT2_Initialize D5E 0 CODE 0
_TMR3_Initialize DF5 0 CODE 0
_I2C_MasterTRBInsert 6E5 0 CODE 0
_md_receive 25 0 BANK0 1
__Hidloc 0 0 IDLOC 0
__Lidloc 0 0 IDLOC 0
i1_CRC_Start BD0 0 CODE 0
i1CRC_CalculatedResultGet@xorValue 76 0 COMMON 1
_md_send 144 0 BANK2 1
__Hstack 0 0 STACK 2
__Lstack 0 0 STACK 2
__end_of_PID_Reset DF5 0 CODE 0
__Hspace_0 800A 0 ABS 0
__Lspace_0 0 0 ABS 0
_p_i2c_current 37 0 BANK0 1
__size_of_CRC_Initialize 0 0 ABS 0
__Hspace_1 1E9 0 ABS 0
i1CRC_CalculatedResultGet@reverse 47 0 BANK0 1
__Lspace_1 0 0 ABS 0
_IOCAF3_DefaultInterruptHandler BC8 0 CODE 0
__size_of_CRC_Start 0 0 ABS 0
_SCANHADRH 71B 0 ABS 0
_SCANLADRH 719 0 ABS 0
_FLASH_WriteBlock 558 0 CODE 0
__Hspace_2 0 0 ABS 0
__Lspace_2 0 0 ABS 0
_I2C_FunctionComplete D2B 0 CODE 0
_TimeOut BD3 0 CODE 0
__Hcinit 54 0 CODE 0
__Lcinit 3B 0 CODE 0
_PID1OUTHH 599 0 ABS 0
__end_of_MATHACC_HasOverflowOccured C33 0 CODE 0
FLASH_EraseBlock@startAddr 4B 0 BANK0 1
I2C_MasterWriteTRBBuild@ptrb 51 0 BANK0 1
?_PID_Execution 56 0 BANK0 1
__Hspace_3 0 0 ABS 0
__Lspace_3 0 0 ABS 0
IOCAF3_SetInterruptHandler@InterruptHandler 4B 0 BANK0 1
__end_of_TMR3_Reload C15 0 CODE 0
__size_of_main 0 0 ABS 0
__end_of_INTERRUPT_InterruptManager 39 0 CODE 0
__end_of_MATHACC_LoadZ1 CAB 0 CODE 0
__end_of_MATHACC_LoadZ2 CB8 0 CODE 0
i1CRC_Initialize@seed 73 0 COMMON 1
_TMR3_StopTimer BD9 0 CODE 0
__end_of_SPIProcess 6E5 0 CODE 0
__CFG_BORV$LO 0 0 ABS 0
i1_CRC_IsBusy BE7 0 CODE 0
_PID1OUTLH 597 0 ABS 0
PWM@duty 68 0 BANK0 1
_PIN_MANAGER_Initialize 728 0 CODE 0
i1CRC_Initialize@poly 71 0 COMMON 1
i1_TMR3_WriteTimer D0C 0 CODE 0
PID_Execution@output 5F 0 BANK0 1
_SCANHADRL 71A 0 ABS 0
_FLASH_WriteWord 7A7 0 CODE 0
_SCANLADRL 718 0 ABS 0
__CFG_MCLRE$OFF 0 0 ABS 0
_PID1OUTHL 598 0 ABS 0
_ReceiveData 120 0 BANK2 1
_ADC_GetConversion E2D 0 CODE 0
__end_of_EndTransaction C91 0 CODE 0
__end_of_TMR1_WriteTimer D0C 0 CODE 0
_TimeOutFlag 33 0 BANK0 1
SPI_DefaultExchangeHandler@byte 4A 0 BANK0 1
PID_Execution@result 63 0 BANK0 1
_TMR1_Reload C1C 0 CODE 0
_TMR3_Reload C0E 0 CODE 0
clear_ram0 C01 0 CODE 0
_CLC1SEL0 F12 0 ABS 0
_CLC2SEL0 F1C 0 ABS 0
_i2c_object 20 0 BANK0 1
__size_of_SYSTEM_Initialize 0 0 ABS 0
_CLC1SEL1 F13 0 ABS 0
_CLC2SEL1 F1D 0 ABS 0
_CRC_8BitDataWrite C44 0 CODE 0
_PID1OUTLL 596 0 ABS 0
_CWG1CON0 696 0 ABS 0
_CLC1SEL2 F14 0 ABS 0
_CLC2SEL2 F1E 0 ABS 0
_SMT1CON0 D98 0 ABS 0
_SMT2CON0 DAA 0 ABS 0
main@Received 1E0 0 BANK3 1
FLASH_WriteBlock@writeAddr 4E 0 BANK0 1
_CWG1CON1 697 0 ABS 0
__HbssBANK0 0 0 ABS 0
__LbssBANK0 0 0 ABS 0
_CLC1SEL3 F15 0 ABS 0
_CLC2SEL3 F1F 0 ABS 0
_SSP1CON1 215 0 ABS 0
_SMT1CON1 D99 0 ABS 0
_SCANCON0 71C 0 ABS 0
_SMT2CON1 DAB 0 ABS 0
__Hbank10 0 0 BANK10 1
__pbssBANK0 20 0 BANK0 1
__Lbank10 0 0 BANK10 1
_CLC1GLS0 F16 0 ABS 0
_CLC2GLS0 F20 0 ABS 0
__Hbank20 0 0 BANK20 1
__Lbank20 0 0 BANK20 1
__Hbank30 0 0 BANK30 1
__Hbank11 0 0 BANK11 1
__Lbank30 0 0 BANK30 1
__Lbank11 0 0 BANK11 1
__end_of_PIN_MANAGER_IOC C01 0 CODE 0
_CLC1GLS1 F17 0 ABS 0
_CLC2GLS1 F21 0 ABS 0
__Hbank21 0 0 BANK21 1
__Lbank21 0 0 BANK21 1
_SSP1CON3 217 0 ABS 0
__end_of_OSCILLATOR_Initialize C58 0 CODE 0
__Hbank31 0 0 BANK31 1
__Hbank12 0 0 BANK12 1
__Lbank31 0 0 BANK31 1
__Lbank12 0 0 BANK12 1
__end_of_SYSTEM_Initialize FCF 0 CODE 0
_CLC1GLS2 F18 0 ABS 0
_CLC2GLS2 F22 0 ABS 0
__Hbank22 0 0 BANK22 1
__Lbank22 0 0 BANK22 1
__Hbank13 0 0 BANK13 1
__Lbank13 0 0 BANK13 1
_CLC1GLS3 F19 0 ABS 0
_CLC2GLS3 F23 0 ABS 0
__HbssBANK1 0 0 ABS 0
__LbssBANK1 0 0 ABS 0
__Hbank23 0 0 BANK23 1
__Lbank23 0 0 BANK23 1
__Hbank14 0 0 BANK14 1
__pbssBANK1 A0 0 BANK1 1
__Lbank14 0 0 BANK14 1
I2C_MasterReadTRBBuild@length 4C 0 BANK0 1
i1CRC_CalculatedResultGet@result 48 0 BANK0 1
__Hbank24 0 0 BANK24 1
__Lbank24 0 0 BANK24 1
__ptext10 C6E 0 CODE 0
__Hbank15 0 0 BANK15 1
__Lbank15 0 0 BANK15 1
_I2C_MasterWrite ED1 0 CODE 0
__ptext20 C3B 0 CODE 0
__Hbank25 0 0 BANK25 1
__Lbank25 0 0 BANK25 1
__ptext11 728 0 CODE 0
__ptext30 C9E 0 CODE 0
__Hbank16 0 0 BANK16 1
__Lbank16 0 0 BANK16 1
_CLCIN0PPS E28 0 ABS 0
__size_of_I2C_BusCollisionISR 0 0 ABS 0
_CLCIN1PPS E29 0 ABS 0
__ptext21 2 0 CODE 0
__ptext40 D6F 0 CODE 0
__Hbank26 0 0 BANK26 1
__Lbank26 0 0 BANK26 1
__ptext12 C33 0 CODE 0
__ptext31 C15 0 CODE 0
__ptext50 558 0 CODE 0
__Hbank17 0 0 BANK17 1
_TMR3_CallBack C58 0 CODE 0
__Lbank17 0 0 BANK17 1
__HbssBANK2 0 0 ABS 0
__ptext22 CD4 0 CODE 0
__ptext41 BF1 0 CODE 0
__ptext60 C63 0 CODE 0
__LbssBANK2 0 0 ABS 0
__Hbank27 0 0 BANK27 1
__Lbank27 0 0 BANK27 1
__size_of_I2C_MasterRead 0 0 ABS 0
PID_Execution@sign 5E 0 BANK0 1
__size_ofi1_CRC_ReverseValue 0 0 ABS 0
__ptext13 C4E 0 CODE 0
__ptext32 768 0 CODE 0
__ptext51 E6B 0 CODE 0
__ptext70 F71 0 CODE 0
__Hbank18 0 0 BANK18 1
__pbssBANK2 120 0 BANK2 1
__Lbank18 0 0 BANK18 1
_ADCON0bits 9D 0 ABS 0
__ptext23 BDC 0 CODE 0
__ptext42 ED1 0 CODE 0
__ptext61 D0C 0 CODE 0
__ptext80 D2B 0 CODE 0
__Hbank28 0 0 BANK28 1
__Lbank28 0 0 BANK28 1
_PMCON1bits 195 0 ABS 0
__ptext14 CE2 0 CODE 0
__ptext33 C2B 0 CODE 0
__ptext52 E4C 0 CODE 0
__ptext71 624 0 CODE 0
__Hbank19 0 0 BANK19 1
_PWM3_LoadDutyValue DC2 0 CODE 0
__Lbank19 0 0 BANK19 1
__size_of_CRC_CalculatedResultGet 0 0 ABS 0
__ptext24 CC6 0 CODE 0
__ptext43 E8A 0 CODE 0
__ptext62 C58 0 CODE 0
__ptext81 BCA 0 CODE 0
__Hbank29 0 0 BANK29 1
__Lbank29 0 0 BANK29 1
__ptext15 BE3 0 CODE 0
__ptext34 43B 0 CODE 0
__ptext53 BD6 0 CODE 0
__ptext72 EF6 0 CODE 0
__ptext25 E10 0 CODE 0
__ptext44 EAC 0 CODE 0
__ptext63 BC9 0 CODE 0
__ptext16 D1B 0 CODE 0
__ptext35 C23 0 CODE 0
__ptext54 BEC 0 CODE 0
__ptext73 C07 0 CODE 0
__size_ofi1_CRC_Start 0 0 ABS 0
__ptext26 DC2 0 CODE 0
__ptext45 6E5 0 CODE 0
__ptext64 BD3 0 CODE 0
__ptext17 FCF 0 CODE 0
__ptext36 BCE 0 CODE 0
__ptext55 5BE 0 CODE 0
__ptext74 BFB 0 CODE 0
i1CRC_CalculatedResultGet@mask 45 0 BANK0 1
__ptext27 4D3 0 CODE 0
__ptext46 BDF 0 CODE 0
__ptext65 CB8 0 CODE 0
_SSPCLKPPS E20 0 ABS 0
__ptext18 D3C 0 CODE 0
__ptext37 C0E 0 CODE 0
__ptext56 F1E 0 CODE 0
__ptext75 C91 0 CODE 0
__end_of_TMR3_DefaultInterruptHandler BCA 0 CODE 0
__ptext28 DDA 0 CODE 0
__ptext47 F46 0 CODE 0
__ptext66 685 0 CODE 0
_SSPDATPPS E21 0 ABS 0
__ptext19 D81 0 CODE 0
__ptext38 D93 0 CODE 0
__ptext57 C44 0 CODE 0
__ptext76 C84 0 CODE 0
__ptext29 CAB 0 CODE 0
__ptext48 7E6 0 CODE 0
__ptext67 BCC 0 CODE 0
__ptext39 BD9 0 CODE 0
__ptext58 E2D 0 CODE 0
__ptext77 BC8 0 CODE 0
__ptext49 7A7 0 CODE 0
__ptext68 BD0 0 CODE 0
_timer1ReloadVal 29 0 BANK0 1
_INTCONbits B 0 ABS 0
__ptext78 2F8 0 CODE 0
I2C_MasterWriteTRBBuild@address 4D 0 BANK0 1
_timer3ReloadVal 2F 0 BANK0 1
__CFG_PPS1WAY$ON 0 0 ABS 0
?_MATHACC_PIDControllerModeResultGet 4B 0 BANK0 1
__ptext69 BE7 0 CODE 0
__Hend_init 3B 0 CODE 0
__end_of_CRC_ReverseValue F46 0 CODE 0
__Lend_init 39 0 CODE 0
__ptext79 DAA 0 CODE 0
_SPI_Executed A4 0 BANK1 1
?_CRC_ReverseValue 4B 0 BANK0 1
CRC_8BitDataWrite@data 4B 0 BANK0 1
__end_ofi1_CRC_ReverseValue F1E 0 CODE 0
_I2C_Initialize 7E6 0 CODE 0
_ADC_Initialize C3B 0 CODE 0
__size_of_PID_Execution 0 0 ABS 0
_CRC_Initialize FCF 0 CODE 0
_CWG_Initialize D1B 0 CODE 0
_SPI_Initialize D6F 0 CODE 0
__size_of_TMR3_WriteTimer 0 0 ABS 0
_FVR_Initialize BE3 0 CODE 0
I2C_ISR@i2c_10bit_address_restart 34 0 BANK0 1
I2C_MasterReadTRBBuild@ptrb 51 0 BANK0 1
__size_of_TMR1_Initialize 0 0 ABS 0
_OSCILLATOR_Initialize C4E 0 CODE 0
__end_of_TMR3_CallBack C63 0 CODE 0
_SCANTRIG 71D 0 ABS 0
_SPIProcess 685 0 CODE 0
__size_of_INTERRUPT_InterruptManager 0 0 ABS 0
__end_of_CWG_Initialize D2B 0 CODE 0
__Hreset_vec 2 0 CODE 0
__end_of_SMT1_ManualTimerReset BDF 0 CODE 0
__Lreset_vec 0 0 CODE 0
__end_of_I2C_MasterReadTRBBuild F71 0 CODE 0
__size_of_PIN_MANAGER_Initialize 0 0 ABS 0
_PID_Execution 4D3 0 CODE 0
__HcstackBANK3 0 0 ABS 0
__LcstackBANK3 0 0 ABS 0
_PID1SETH 58D 0 ABS 0
__end_of_I2C_WaitForLastPacketToComplete BE3 0 CODE 0
__pcstackBANK3 1A0 0 BANK3 1
__size_ofi1_TMR3_WriteTimer 0 0 ABS 0
?_ADC_GetConversion 4B 0 BANK0 1
__size_ofi1_CRC_IsBusy 0 0 ABS 0
?i1_CRC_CalculatedResultGet 76 0 COMMON 1
__end_of_TMR3_WriteTimer DAA 0 CODE 0
__end_of_TMR3_StartTimer BD0 0 CODE 0
__size_ofi1_CRC_8BitDataWrite 0 0 ABS 0
_T2CLKCON 1E 0 ABS 0
MATHACC_LoadZ1@value 4B 0 BANK0 1
_PID1SETL 58C 0 ABS 0
i1_CRC_8BitDataWrite C07 0 CODE 0
_IOCAF3_SetInterruptHandler C33 0 CODE 0
__end_of_SPI_setExchangeHandler BF6 0 CODE 0
intlevel0 0 0 ENTRY 0
__CFG_WDTE$OFF 0 0 ABS 0
_SSP1STAT 214 0 ABS 0
intlevel1 0 0 ENTRY 0
_SMT1STAT D9A 0 ABS 0
_SMT2STAT DAC 0 ABS 0
intlevel2 0 0 ENTRY 0
FLASH_WriteWord@i 61 0 BANK0 1
intlevel3 0 0 ENTRY 0
__size_of_TMR3_SetInterruptHandler 0 0 ABS 0
intlevel4 0 0 ENTRY 0
_SSP1CON1bits 215 0 ABS 0
_SMT1CON1bits D99 0 ABS 0
_SMT2CON1bits DAB 0 ABS 0
__CFG_LPBOR$OFF 0 0 ABS 0
FLASH_ReadWord@GIEBitValue 4D 0 BANK0 1
intlevel5 0 0 ENTRY 0
__end_of_FLASH_WriteWord 7E6 0 CODE 0
_SSP1CON2bits 216 0 ABS 0
CRC_CalculatedResultGet@result 58 0 BANK0 1
I2C_MasterReadTRBBuild@address 4D 0 BANK0 1
__size_of_I2C_FunctionComplete 0 0 ABS 0
_TMR3_ISR C63 0 CODE 0
__size_of_MATHACC_Initialize 0 0 ABS 0
__size_of_GetAngle 0 0 ABS 0
MATHACC_PIDControllerModeResultGet@input 4D 0 BANK0 1
_CRC_ReverseValue F1E 0 CODE 0
__size_of_TimeOut 0 0 ABS 0
FLASH_WriteWord@word 5B 0 BANK0 1
_SSPSSPPS E22 0 ABS 0
__end_of_PWM3_LoadDutyValue DDA 0 CODE 0
PID_Execution@reference 56 0 BANK0 1
__end_of_SMT2_ManualTimerReset 4 0 CODE 0
__HcstackCOMMON 0 0 ABS 0
__LcstackCOMMON 0 0 ABS 0
i1CRC_ReverseValue@crc 70 0 COMMON 1
i1_CRC_CalculatedResultGet 624 0 CODE 0
_PID1OUTU 59A 0 ABS 0
__pcstackCOMMON 70 0 COMMON 1
__CFG_ZCD$OFF 0 0 ABS 0
__size_of_TMR1_Reload 0 0 ABS 0
__end_of_I2C_Initialize 800 0 CODE 0
__size_of_PID_Reset 0 0 ABS 0
I2C_MasterRead@address 53 0 BANK0 1
start_initialization 3B 0 CODE 0
_p_i2c_trb_current 38 0 BANK0 1
_CRC_IsBusy BEC 0 CODE 0
__end_of_SPI_Initialize D81 0 CODE 0
TMR3_SetInterruptHandler@InterruptHandler 4B 0 BANK0 1
__end_of_IOCAF3_DefaultInterruptHandler BC9 0 CODE 0
__Hmaintext 0 0 ABS 0
__Lmaintext 0 0 ABS 0
__pmaintext 54 0 CODE 0
i1_CRC_ReverseValue EF6 0 CODE 0
__size_of_ADC_Initialize 0 0 ABS 0
__size_of_OSCILLATOR_Initialize 0 0 ABS 0
_OPTION_REGbits 95 0 ABS 0
SPI_setExchangeHandler@InterruptHandler 4B 0 BANK0 1
__end_of_I2C_MasterWriteTRBBuild EAC 0 CODE 0
__CFG_FOSC$INTOSC 0 0 ABS 0
I2C_ISR@pi2c_buf_ptr 36 0 BANK0 1
__size_of_EndTransaction 0 0 ABS 0
_MATHACC_ClearResult C15 0 CODE 0
__size_of_SMT1_Initialize 0 0 ABS 0
__end_of_SPI_DefaultExchangeHandler BCE 0 CODE 0
GetAngle@RAW_ANGLE 62 0 BANK0 1
I2C_MasterWrite@pflag 55 0 BANK0 1
I2C_MasterWrite@pdata 58 0 BANK0 1
__initialization 3B 0 CODE 0
__size_of_SPI_DefaultExchangeHandler 0 0 ABS 0
__size_ofi1_CRC_CalculatedResultGet 0 0 ABS 0
?_FLASH_ReadWord 4B 0 BANK0 1
CRC_ReverseValue@crc 4B 0 BANK0 1
_i2c_trb_count 39 0 BANK0 1
I2C_MasterRead@trBlock 14C 0 BANK2 1
__size_ofi1_CRC_Initialize 0 0 ABS 0
__size_of_TMR2_Initialize 0 0 ABS 0
__end_of_CRC_CalculatedResultGet 624 0 CODE 0
__end_ofi1_CRC_Start BD3 0 CODE 0
__end_of_I2C_BusCollisionISR BCC 0 CODE 0
I2C_MasterTRBInsert@pflag 4C 0 BANK0 1
__end_of_I2C_MasterRead ED1 0 CODE 0
FLASH_WriteWord@flashAddr 58 0 BANK0 1
CRC_Initialize@poly 4C 0 BANK0 1
__end_of_IOCAF3_ISR C9E 0 CODE 0
__CFG_CP$OFF 0 0 ABS 0
FLASH_WriteWord@ramBuf 5A 0 BANK0 1
__size_of_TMR3_ISR 0 0 ABS 0
__CFG_WDTCCS$SWC 0 0 ABS 0
_MATHACC_PIDControllerModeResultGet 768 0 CODE 0
FLASH_WriteWord@offset 5E 0 BANK0 1
__CFG_LVP$OFF 0 0 ABS 0
CRC_ReverseValue@mask 4F 0 BANK0 1
MATHACC_LoadZ2@value 4B 0 BANK0 1
_I2C_MasterRead EAC 0 CODE 0
%segments
reset_vec 0 7 CODE 0 0
intentry 8 FFF CODE 8 0
config 1000E 10013 CONFIG 1000E 0
cstackCOMMON 70 7D COMMON 70 1
cstackBANK3 1A0 1E8 BANK3 1A0 1
bssBANK2 120 153 BANK2 120 1
bssBANK0 20 69 BANK0 20 1
bssBANK1 A0 AB BANK1 A0 1
text17 1F9E 1FFF CODE 1F9E 0
text3 1F3E 1F9D CODE 1F3E 0
text70 1EE2 1F3D CODE 1EE2 0
text47 1E8C 1EE1 CODE 1E8C 0
text56 1E3C 1E8B CODE 1E3C 0
text72 1DEC 1E3B CODE 1DEC 0
text42 1DA2 1DEB CODE 1DA2 0
text44 1D58 1DA1 CODE 1D58 0
text43 1D14 1D57 CODE 1D14 0
text51 1CD6 1D13 CODE 1CD6 0
text52 1C98 1CD5 CODE 1C98 0
text58 1C5A 1C97 CODE 1C5A 0
text25 1C20 1C59 CODE 1C20 0
text4 1BEA 1C1F CODE 1BEA 0
text28 1BB4 1BE9 CODE 1BB4 0
text26 1B84 1BB3 CODE 1B84 0
text79 1B54 1B83 CODE 1B54 0
text38 1B26 1B53 CODE 1B26 0
text19 1B02 1B25 CODE 1B02 0
text40 1ADE 1B01 CODE 1ADE 0
text8 1ABC 1ADD CODE 1ABC 0
text9 1A9A 1ABB CODE 1A9A 0
text18 1A78 1A99 CODE 1A78 0
text80 1A56 1A77 CODE 1A56 0
text16 1A36 1A55 CODE 1A36 0
text61 1A18 1A35 CODE 1A18 0
text2 19FC 1A17 CODE 19FC 0
text7 19E0 19FB CODE 19E0 0
text14 19C4 19DF CODE 19C4 0
text22 19A8 19C3 CODE 19A8 0
text24 198C 19A7 CODE 198C 0
text65 1970 198B CODE 1970 0
text29 1956 196F CODE 1956 0
text30 193C 1955 CODE 193C 0
text75 1922 193B CODE 1922 0
text76 1908 1921 CODE 1908 0
text6 18F2 1907 CODE 18F2 0
text10 18DC 18F1 CODE 18DC 0
text60 18C6 18DB CODE 18C6 0
text62 18B0 18C5 CODE 18B0 0
text13 189C 18AF CODE 189C 0
text57 1888 189B CODE 1888 0
text20 1876 1887 CODE 1876 0
text12 1866 1875 CODE 1866 0
text33 1856 1865 CODE 1856 0
text35 1846 1855 CODE 1846 0
text1 1838 1845 CODE 1838 0
text31 182A 1837 CODE 182A 0
text37 181C 1829 CODE 181C 0
text73 180E 181B CODE 180E 0
clrtext 1802 180D CODE 1802 0
text74 17F6 1801 CODE 17F6 0
text5 17EC 17F5 CODE 17EC 0
text41 17E2 17EB CODE 17E2 0
text54 17D8 17E1 CODE 17D8 0
text69 17CE 17D7 CODE 17CE 0
text15 17C6 17CD CODE 17C6 0
text46 17BE 17C5 CODE 17BE 0
text23 17B8 17BD CODE 17B8 0
text39 17B2 17B7 CODE 17B2 0
text53 17AC 17B1 CODE 17AC 0
text64 17A6 17AB CODE 17A6 0
text68 17A0 17A5 CODE 17A0 0
stringtext1 1000 1003 STRCODE 1000 0
text36 179C 179F CODE 179C 0
text67 1798 179B CODE 1798 0
text81 1794 1797 CODE 1794 0
text63 1792 1793 CODE 1792 0
text77 1790 1791 CODE 1790 0
%locals
dist/default/production\GateDriverV4.X.production.o
C:\Users\hiira\AppData\Local\Temp\s6kg.
19265 3B 0 CODE 0
19268 3B 0 CODE 0
19385 3B 0 CODE 0
19386 3C 0 CODE 0
19387 3D 0 CODE 0
19388 3E 0 CODE 0
19389 3F 0 CODE 0
19390 40 0 CODE 0
19394 43 0 CODE 0
19395 44 0 CODE 0
19396 45 0 CODE 0
19397 46 0 CODE 0
19398 47 0 CODE 0
19399 48 0 CODE 0
19403 49 0 CODE 0
19404 4A 0 CODE 0
19405 4B 0 CODE 0
19406 4C 0 CODE 0
19407 4D 0 CODE 0
19408 4E 0 CODE 0
19414 50 0 CODE 0
19416 50 0 CODE 0
19417 51 0 CODE 0
19418 52 0 CODE 0
19374 C01 0 CODE 0
19375 C01 0 CODE 0
19376 C02 0 CODE 0
19377 C02 0 CODE 0
19378 C03 0 CODE 0
19379 C04 0 CODE 0
19380 C05 0 CODE 0
19381 C06 0 CODE 0
main.c
64 54 0 CODE 0
66 54 0 CODE 0
69 57 0 CODE 0
70 5A 0 CODE 0
71 7B 0 CODE 0
72 A1 0 CODE 0
73 B3 0 CODE 0
74 B7 0 CODE 0
75 BB 0 CODE 0
76 BF 0 CODE 0
77 C3 0 CODE 0
78 C7 0 CODE 0
81 CB 0 CODE 0
82 CC 0 CODE 0
84 CD 0 CODE 0
85 D0 0 CODE 0
86 D8 0 CODE 0
88 DB 0 CODE 0
89 E3 0 CODE 0
91 EA 0 CODE 0
92 ED 0 CODE 0
93 F0 0 CODE 0
97 F2 0 CODE 0
98 F4 0 CODE 0
100 F6 0 CODE 0
101 F9 0 CODE 0
104 FA 0 CODE 0
105 FD 0 CODE 0
106 FE 0 CODE 0
107 101 0 CODE 0
108 109 0 CODE 0
109 117 0 CODE 0
111 11B 0 CODE 0
114 11F 0 CODE 0
116 121 0 CODE 0
117 126 0 CODE 0
118 133 0 CODE 0
119 136 0 CODE 0
120 139 0 CODE 0
124 13A 0 CODE 0
125 145 0 CODE 0
126 150 0 CODE 0
128 154 0 CODE 0
129 157 0 CODE 0
130 15A 0 CODE 0
133 15D 0 CODE 0
131 169 0 CODE 0
132 172 0 CODE 0
133 178 0 CODE 0
134 17E 0 CODE 0
135 18A 0 CODE 0
136 19A 0 CODE 0
139 19D 0 CODE 0
140 1AA 0 CODE 0
141 1AB 0 CODE 0
143 1AC 0 CODE 0
144 1B4 0 CODE 0
146 1B5 0 CODE 0
147 1B8 0 CODE 0
149 1B9 0 CODE 0
150 1C1 0 CODE 0
154 1C2 0 CODE 0
155 1C6 0 CODE 0
156 1E6 0 CODE 0
157 1F7 0 CODE 0
158 1FA 0 CODE 0
159 1FD 0 CODE 0
160 1FE 0 CODE 0
161 202 0 CODE 0
162 20C 0 CODE 0
163 223 0 CODE 0
164 225 0 CODE 0
167 226 0 CODE 0
168 22A 0 CODE 0
169 22E 0 CODE 0
173 237 0 CODE 0
174 23B 0 CODE 0
175 23F 0 CODE 0
179 248 0 CODE 0
180 24C 0 CODE 0
181 250 0 CODE 0
185 259 0 CODE 0
186 25C 0 CODE 0
187 28C 0 CODE 0
188 2BF 0 CODE 0
193 2D2 0 CODE 0
194 2F7 0 CODE 0
mcc_generated_files/tmr1.c
135 C1C 0 CODE 0
137 C1C 0 CODE 0
138 C22 0 CODE 0
113 CFE 0 CODE 0
115 CFE 0 CODE 0
118 D00 0 CODE 0
121 D01 0 CODE 0
122 D03 0 CODE 0
125 D05 0 CODE 0
126 D06 0 CODE 0
130 D07 0 CODE 0
131 D09 0 CODE 0
133 D0B 0 CODE 0
mcc_generated_files/mcc.c
50 F9F 0 CODE 0
52 F9F 0 CODE 0
53 FA2 0 CODE 0
54 FA5 0 CODE 0
55 FA8 0 CODE 0
56 FAB 0 CODE 0
57 FAE 0 CODE 0
58 FB1 0 CODE 0
59 FB4 0 CODE 0
60 FB7 0 CODE 0
61 FBA 0 CODE 0
62 FBD 0 CODE 0
63 FC0 0 CODE 0
64 FC3 0 CODE 0
65 FC6 0 CODE 0
66 FC9 0 CODE 0
67 FCC 0 CODE 0
68 FCE 0 CODE 0
mcc_generated_files/tmr3.c
64 DF5 0 CODE 0
69 DF5 0 CODE 0
72 DF7 0 CODE 0
75 DF9 0 CODE 0
78 DFB 0 CODE 0
81 E02 0 CODE 0
84 E03 0 CODE 0
87 E05 0 CODE 0
90 E0C 0 CODE 0
91 E0F 0 CODE 0
178 BF6 0 CODE 0
179 BF6 0 CODE 0
180 BFA 0 CODE 0
mcc_generated_files/tmr2.c
62 C79 0 CODE 0
67 C79 0 CODE 0
70 C7B 0 CODE 0
73 C7C 0 CODE 0
76 C7D 0 CODE 0
79 C7F 0 CODE 0
82 C80 0 CODE 0
85 C81 0 CODE 0
86 C83 0 CODE 0
mcc_generated_files/tmr1.c
63 CF0 0 CODE 0
68 CF0 0 CODE 0
71 CF2 0 CODE 0
74 CF4 0 CODE 0
77 CF6 0 CODE 0
80 CFA 0 CODE 0
83 CFB 0 CODE 0
84 CFD 0 CODE 0
mcc_generated_files/smt2.c
59 D5E 0 CODE 0
62 D5E 0 CODE 0
65 D61 0 CODE 0
68 D63 0 CODE 0
71 D64 0 CODE 0
74 D65 0 CODE 0
77 D66 0 CODE 0
80 D68 0 CODE 0
83 D69 0 CODE 0
86 D6B 0 CODE 0
89 D6D 0 CODE 0
91 D6E 0 CODE 0
mcc_generated_files/smt1.c
59 D4D 0 CODE 0
62 D4D 0 CODE 0
65 D50 0 CODE 0
68 D52 0 CODE 0
71 D53 0 CODE 0
74 D54 0 CODE 0
77 D55 0 CODE 0
80 D57 0 CODE 0
83 D58 0 CODE 0
86 D5A 0 CODE 0
89 D5C 0 CODE 0
91 D5D 0 CODE 0
mcc_generated_files/pwm3.c
58 C6E 0 CODE 0
62 C6E 0 CODE 0
65 C71 0 CODE 0
68 C73 0 CODE 0
71 C75 0 CODE 0
72 C78 0 CODE 0
mcc_generated_files/pin_manager.c
57 728 0 CODE 0
62 728 0 CODE 0
63 72A 0 CODE 0
68 72B 0 CODE 0
69 72E 0 CODE 0
74 730 0 CODE 0
75 733 0 CODE 0
80 735 0 CODE 0
81 737 0 CODE 0
82 739 0 CODE 0
87 73B 0 CODE 0
88 73D 0 CODE 0
93 73E 0 CODE 0
94 741 0 CODE 0
101 743 0 CODE 0
103 745 0 CODE 0
105 746 0 CODE 0
110 747 0 CODE 0
113 74E 0 CODE 0
116 74F 0 CODE 0
117 752 0 CODE 0
118 754 0 CODE 0
119 755 0 CODE 0
120 757 0 CODE 0
121 759 0 CODE 0
122 75C 0 CODE 0
123 75F 0 CODE 0
124 762 0 CODE 0
125 764 0 CODE 0
126 767 0 CODE 0
155 C33 0 CODE 0
156 C33 0 CODE 0
157 C3A 0 CODE 0
mcc_generated_files/mcc.c
70 C4E 0 CODE 0
73 C4E 0 CODE 0
75 C51 0 CODE 0
77 C52 0 CODE 0
81 C54 0 CODE 0
79 C54 0 CODE 0
mcc_generated_files/mathacc.c
58 CE2 0 CODE 0
62 CE2 0 CODE 0
65 CE5 0 CODE 0
66 CE7 0 CODE 0
67 CE9 0 CODE 0
68 CEB 0 CODE 0
69 CED 0 CODE 0
70 CEE 0 CODE 0
72 CEF 0 CODE 0
mcc_generated_files/fvr.c
58 BE3 0 CODE 0
61 BE3 0 CODE 0
62 BE6 0 CODE 0
mcc_generated_files/cwg.c
58 D1B 0 CODE 0
63 D1B 0 CODE 0
66 D1D 0 CODE 0
69 D1F 0 CODE 0
72 D21 0 CODE 0
75 D23 0 CODE 0
78 D24 0 CODE 0
81 D25 0 CODE 0
84 D26 0 CODE 0
87 D28 0 CODE 0
89 D2A 0 CODE 0
mcc_generated_files/crc.c
76 FCF 0 CODE 0
82 FCF 0 CODE 0
84 FD2 0 CODE 0
86 FD4 0 CODE 0
88 FD5 0 CODE 0
90 FD6 0 CODE 0
92 FD8 0 CODE 0
94 FD9 0 CODE 0
96 FDA 0 CODE 0
98 FDC 0 CODE 0
100 FDE 0 CODE 0
102 FDF 0 CODE 0
103 FE4 0 CODE 0
104 FE7 0 CODE 0
106 FE9 0 CODE 0
108 FEC 0 CODE 0
109 FEF 0 CODE 0
111 FF0 0 CODE 0
112 FF7 0 CODE 0
113 FFF 0 CODE 0
mcc_generated_files/clc2.c
58 D3C 0 CODE 0
63 D3C 0 CODE 0
65 D3E 0 CODE 0
67 D3F 0 CODE 0
69 D41 0 CODE 0
71 D42 0 CODE 0
73 D43 0 CODE 0
75 D45 0 CODE 0
77 D47 0 CODE 0
79 D49 0 CODE 0
81 D4A 0 CODE 0
83 D4C 0 CODE 0
mcc_generated_files/clc1.c
58 D81 0 CODE 0
63 D81 0 CODE 0
65 D84 0 CODE 0
67 D85 0 CODE 0
69 D87 0 CODE 0
71 D88 0 CODE 0
73 D89 0 CODE 0
75 D8B 0 CODE 0
77 D8D 0 CODE 0
79 D8F 0 CODE 0
81 D90 0 CODE 0
83 D92 0 CODE 0
mcc_generated_files/adc.c
65 C3B 0 CODE 0
70 C3B 0 CODE 0
73 C3E 0 CODE 0
76 C40 0 CODE 0
79 C41 0 CODE 0
82 C42 0 CODE 0
84 C43 0 CODE 0
mcc_generated_files/smt2.c
143 2 0 CODE 0
145 2 0 CODE 0
146 3 0 CODE 0
163 CD4 0 CODE 0
165 CD4 0 CODE 0
166 CE1 0 CODE 0
mcc_generated_files/smt1.c
143 BDC 0 CODE 0
145 BDC 0 CODE 0
146 BDE 0 CODE 0
163 CC6 0 CODE 0
165 CC6 0 CODE 0
166 CD3 0 CODE 0
main.c
56 E10 0 CODE 0
57 E10 0 CODE 0
58 E17 0 CODE 0
59 E1B 0 CODE 0
60 E22 0 CODE 0
61 E26 0 CODE 0
62 E2C 0 CODE 0
mcc_generated_files/pwm3.c
74 DC2 0 CODE 0
77 DC2 0 CODE 0
80 DCD 0 CODE 0
81 DD9 0 CODE 0
pid.c
4 4D3 0 CODE 0
8 4D3 0 CODE 0
10 4EC 0 CODE 0
11 4F2 0 CODE 0
12 4F5 0 CODE 0
14 4FA 0 CODE 0
21 4FA 0 CODE 0
22 4FC 0 CODE 0
23 4FD 0 CODE 0
24 4FE 0 CODE 0
25 4FE 0 CODE 0
27 500 0 CODE 0
28 513 0 CODE 0
29 51B 0 CODE 0
30 51F 0 CODE 0
31 532 0 CODE 0
32 535 0 CODE 0
34 53A 0 CODE 0
36 53D 0 CODE 0
43 54C 0 CODE 0
45 553 0 CODE 0
46 557 0 CODE 0
48 DDA 0 CODE 0
49 DDA 0 CODE 0
50 DDD 0 CODE 0
51 DE9 0 CODE 0
52 DF4 0 CODE 0
mcc_generated_files/mathacc.c
124 CAB 0 CODE 0
126 CAB 0 CODE 0
127 CAE 0 CODE 0
128 CB2 0 CODE 0
129 CB7 0 CODE 0
117 C9E 0 CODE 0
119 C9E 0 CODE 0
120 CA1 0 CODE 0
121 CA5 0 CODE 0
122 CAA 0 CODE 0
144 C15 0 CODE 0
146 C15 0 CODE 0
147 C17 0 CODE 0
148 C18 0 CODE 0
149 C19 0 CODE 0
150 C1A 0 CODE 0
151 C1B 0 CODE 0
74 768 0 CODE 0
78 768 0 CODE 0
79 76B 0 CODE 0
80 76F 0 CODE 0
81 773 0 CODE 0
83 777 0 CODE 0
85 77A 0 CODE 0
86 780 0 CODE 0
87 786 0 CODE 0
88 78C 0 CODE 0
89 792 0 CODE 0
91 798 0 CODE 0
92 7A6 0 CODE 0
153 C2B 0 CODE 0
155 C2B 0 CODE 0
157 C2C 0 CODE 0
159 C2E 0 CODE 0
160 C30 0 CODE 0
163 C31 0 CODE 0
164 C32 0 CODE 0
angle.c
15 43B 0 CODE 0
16 43B 0 CODE 0
17 43C 0 CODE 0
22 43D 0 CODE 0
26 442 0 CODE 0
27 445 0 CODE 0
28 448 0 CODE 0
29 44B 0 CODE 0
30 44D 0 CODE 0
31 450 0 CODE 0
32 451 0 CODE 0
33 454 0 CODE 0
34 457 0 CODE 0
35 458 0 CODE 0
36 45C 0 CODE 0
37 46A 0 CODE 0
38 46D 0 CODE 0
39 475 0 CODE 0
40 479 0 CODE 0
41 489 0 CODE 0
42 48C 0 CODE 0
43 494 0 CODE 0
44 497 0 CODE 0
45 4A4 0 CODE 0
46 4AB 0 CODE 0
47 4AD 0 CODE 0
48 4AE 0 CODE 0
49 4AF 0 CODE 0
50 4B1 0 CODE 0
51 4B3 0 CODE 0
52 4B4 0 CODE 0
53 4B6 0 CODE 0
54 4B8 0 CODE 0
55 4BA 0 CODE 0
56 4BD 0 CODE 0
57 4C4 0 CODE 0
58 4C5 0 CODE 0
59 4C6 0 CODE 0
61 4C7 0 CODE 0
62 4CA 0 CODE 0
63 4CD 0 CODE 0
64 4D2 0 CODE 0
5 C23 0 CODE 0
6 C23 0 CODE 0
7 C26 0 CODE 0
8 C28 0 CODE 0
9 C2A 0 CODE 0
mcc_generated_files/tmr3.c
93 BCE 0 CODE 0
96 BCE 0 CODE 0
97 BCF 0 CODE 0
142 C0E 0 CODE 0
144 C0E 0 CODE 0
145 C14 0 CODE 0
120 D93 0 CODE 0
122 D93 0 CODE 0
125 D96 0 CODE 0
128 D97 0 CODE 0
129 D9B 0 CODE 0
132 D9F 0 CODE 0
133 DA0 0 CODE 0
137 DA1 0 CODE 0
138 DA5 0 CODE 0
140 DA9 0 CODE 0
99 BD9 0 CODE 0
102 BD9 0 CODE 0
103 BDB 0 CODE 0
mcc_generated_files/spi.c
60 D6F 0 CODE 0
65 D6F 0 CODE 0
68 D72 0 CODE 0
71 D74 0 CODE 0
73 D75 0 CODE 0
74 D77 0 CODE 0
76 D7E 0 CODE 0
77 D80 0 CODE 0
86 BF1 0 CODE 0
87 BF1 0 CODE 0
88 BF5 0 CODE 0
i2c.c
600 ED1 0 CODE 0
601 ED1 0 CODE 0
609 ED2 0 CODE 0
611 ED4 0 CODE 0
612 EE4 0 CODE 0
613 EEF 0 CODE 0
616 EF0 0 CODE 0
619 EF5 0 CODE 0
721 E8A 0 CODE 0
722 E8A 0 CODE 0
727 E8B 0 CODE 0
728 E99 0 CODE 0
729 EA2 0 CODE 0
730 EAB 0 CODE 0
621 EAC 0 CODE 0
622 EAC 0 CODE 0
631 EAD 0 CODE 0
633 EAF 0 CODE 0
634 EBF 0 CODE 0
635 ECA 0 CODE 0
638 ECB 0 CODE 0
641 ED0 0 CODE 0
654 6E5 0 CODE 0
655 6E5 0 CODE 0
661 6E6 0 CODE 0
663 6E8 0 CODE 0
665 6EF 0 CODE 0
666 6F6 0 CODE 0
667 6FD 0 CODE 0
668 705 0 CODE 0
671 709 0 CODE 0
674 70D 0 CODE 0
679 711 0 CODE 0
682 712 0 CODE 0
685 716 0 CODE 0
691 718 0 CODE 0
695 71D 0 CODE 0
697 724 0 CODE 0
702 726 0 CODE 0
706 727 0 CODE 0
644 BDF 0 CODE 0
646 BDF 0 CODE 0
708 F46 0 CODE 0
709 F46 0 CODE 0
714 F47 0 CODE 0
716 F55 0 CODE 0
717 F5E 0 CODE 0
718 F67 0 CODE 0
719 F70 0 CODE 0
198 7E6 0 CODE 0
201 7E6 0 CODE 0
202 7EB 0 CODE 0
203 7EF 0 CODE 0
204 7F0 0 CODE 0
206 7F1 0 CODE 0
209 7F2 0 CODE 0
211 7F4 0 CODE 0
213 7F6 0 CODE 0
215 7F7 0 CODE 0
218 7F9 0 CODE 0
219 7FB 0 CODE 0
222 7FC 0 CODE 0
223 7FE 0 CODE 0
225 7FF 0 CODE 0
mcc_generated_files/memory.c
75 7A7 0 CODE 0
77 7A7 0 CODE 0
78 7AD 0 CODE 0
82 7B2 0 CODE 0
84 7B3 0 CODE 0
85 7C8 0 CODE 0
88 7D0 0 CODE 0
91 7DB 0 CODE 0
92 7E5 0 CODE 0
94 558 0 CODE 0
96 558 0 CODE 0
97 55E 0 CODE 0
101 562 0 CODE 0
106 56A 0 CODE 0
109 56B 0 CODE 0
112 572 0 CODE 0
113 574 0 CODE 0
114 575 0 CODE 0
116 576 0 CODE 0
119 578 0 CODE 0
121 57B 0 CODE 0
124 57F 0 CODE 0
125 58A 0 CODE 0
127 599 0 CODE 0
130 59E 0 CODE 0
133 5A0 0 CODE 0
134 5A3 0 CODE 0
135 5A5 0 CODE 0
136 5A6 0 CODE 0
137 5A7 0 CODE 0
139 5A8 0 CODE 0
140 5AD 0 CODE 0
142 5B5 0 CODE 0
143 5B7 0 CODE 0
146 5BD 0 CODE 0
148 E6B 0 CODE 0
150 E6B 0 CODE 0
153 E6F 0 CODE 0
155 E70 0 CODE 0
157 E73 0 CODE 0
160 E77 0 CODE 0
161 E78 0 CODE 0
162 E79 0 CODE 0
165 E7A 0 CODE 0
166 E7C 0 CODE 0
167 E7E 0 CODE 0
168 E7F 0 CODE 0
169 E80 0 CODE 0
171 E81 0 CODE 0
172 E83 0 CODE 0
173 E89 0 CODE 0
58 E4C 0 CODE 0
60 E4C 0 CODE 0
62 E50 0 CODE 0
63 E51 0 CODE 0
64 E54 0 CODE 0
66 E58 0 CODE 0
67 E59 0 CODE 0
68 E5A 0 CODE 0
69 E5B 0 CODE 0
70 E5C 0 CODE 0
72 E62 0 CODE 0
73 E6A 0 CODE 0
mcc_generated_files/crc.c
115 BD6 0 CODE 0
118 BD6 0 CODE 0
119 BD8 0 CODE 0
197 BEC 0 CODE 0
200 BEC 0 CODE 0
201 BF0 0 CODE 0
155 5BE 0 CODE 0
160 5BF 0 CODE 0
161 5C1 0 CODE 0
162 5C3 0 CODE 0
164 5D1 0 CODE 0
166 5D6 0 CODE 0
171 5D9 0 CODE 0
174 5DB 0 CODE 0
175 5DC 0 CODE 0
176 5DF 0 CODE 0
178 5E0 0 CODE 0
179 5E2 0 CODE 0
181 5EF 0 CODE 0
182 5F6 0 CODE 0
185 5FA 0 CODE 0
186 60A 0 CODE 0
189 60E 0 CODE 0
190 611 0 CODE 0
192 61B 0 CODE 0
194 61F 0 CODE 0
195 623 0 CODE 0
134 F1E 0 CODE 0
139 F1E 0 CODE 0
140 F22 0 CODE 0
141 F2A 0 CODE 0
143 F2C 0 CODE 0
145 F30 0 CODE 0
147 F32 0 CODE 0
149 F36 0 CODE 0
150 F3B 0 CODE 0
143 F40 0 CODE 0
152 F41 0 CODE 0
153 F45 0 CODE 0
121 C44 0 CODE 0
123 C46 0 CODE 0
125 C49 0 CODE 0
132 C4D 0 CODE 0
mcc_generated_files/adc.c
113 E2D 0 CODE 0
116 E2F 0 CODE 0
119 E3B 0 CODE 0
122 E3C 0 CODE 0
125 E40 0 CODE 0
130 E42 0 CODE 0
128 E42 0 CODE 0
133 E44 0 CODE 0
134 E4B 0 CODE 0
mcc_generated_files/interrupt_manager.c
54 4 0 CODE 0
57 6 0 CODE 0
59 9 0 CODE 0
60 C 0 CODE 0
61 D 0 CODE 0
63 F 0 CODE 0
65 15 0 CODE 0
66 18 0 CODE 0
67 19 0 CODE 0
71 1E 0 CODE 0
73 24 0 CODE 0
74 27 0 CODE 0
76 2B 0 CODE 0
78 2F 0 CODE 0
81 35 0 CODE 0
92 37 0 CODE 0
mcc_generated_files/tmr3.c
157 C63 0 CODE 0
161 C63 0 CODE 0
162 C64 0 CODE 0
166 C6B 0 CODE 0
167 C6D 0 CODE 0
120 D0C 0 CODE 0
122 D0C 0 CODE 0
125 D0F 0 CODE 0
128 D10 0 CODE 0
129 D12 0 CODE 0
132 D14 0 CODE 0
133 D15 0 CODE 0
137 D16 0 CODE 0
138 D18 0 CODE 0
140 D1A 0 CODE 0
169 C58 0 CODE 0
172 C58 0 CODE 0
174 C5D 0 CODE 0
176 C62 0 CODE 0
182 BC9 0 CODE 0
185 BC9 0 CODE 0
angle.c
11 BD3 0 CODE 0
12 BD3 0 CODE 0
13 BD5 0 CODE 0
mcc_generated_files/spi.c
80 CB8 0 CODE 0
82 CB8 0 CODE 0
83 CC5 0 CODE 0
exchange.c
2 685 0 CODE 0
3 685 0 CODE 0
4 68F 0 CODE 0
5 693 0 CODE 0
6 699 0 CODE 0
8 6A3 0 CODE 0
9 6A6 0 CODE 0
10 6A9 0 CODE 0
11 6AD 0 CODE 0
12 6B6 0 CODE 0
13 6BC 0 CODE 0
14 6CB 0 CODE 0
16 6D6 0 CODE 0
17 6DB 0 CODE 0
18 6DD 0 CODE 0
19 6E4 0 CODE 0
mcc_generated_files/spi.c
92 BCC 0 CODE 0
95 BCC 0 CODE 0
96 BCD 0 CODE 0
mcc_generated_files/crc.c
115 BD0 0 CODE 0
118 BD0 0 CODE 0
119 BD2 0 CODE 0
197 BE7 0 CODE 0
200 BE7 0 CODE 0
201 BEB 0 CODE 0
76 F71 0 CODE 0
82 F71 0 CODE 0
84 F74 0 CODE 0
86 F76 0 CODE 0
88 F77 0 CODE 0
90 F78 0 CODE 0
92 F7A 0 CODE 0
94 F7B 0 CODE 0
96 F7C 0 CODE 0
98 F7E 0 CODE 0
100 F80 0 CODE 0
102 F81 0 CODE 0
103 F85 0 CODE 0
104 F88 0 CODE 0
106 F8A 0 CODE 0
108 F8C 0 CODE 0
109 F8E 0 CODE 0
111 F8F 0 CODE 0
112 F96 0 CODE 0
113 F9E 0 CODE 0
155 624 0 CODE 0
160 626 0 CODE 0
161 628 0 CODE 0
162 62A 0 CODE 0
164 634 0 CODE 0
166 639 0 CODE 0
171 63C 0 CODE 0
174 63E 0 CODE 0
175 63F 0 CODE 0
176 642 0 CODE 0
178 643 0 CODE 0
179 645 0 CODE 0
181 650 0 CODE 0
182 657 0 CODE 0
185 65B 0 CODE 0
186 66B 0 CODE 0
189 66F 0 CODE 0
190 672 0 CODE 0
192 67C 0 CODE 0
194 680 0 CODE 0
195 684 0 CODE 0
134 EF6 0 CODE 0
139 EF6 0 CODE 0
140 EFA 0 CODE 0
141 F02 0 CODE 0
143 F04 0 CODE 0
145 F08 0 CODE 0
147 F0A 0 CODE 0
149 F0E 0 CODE 0
150 F13 0 CODE 0
143 F18 0 CODE 0
152 F19 0 CODE 0
153 F1D 0 CODE 0
121 C07 0 CODE 0
123 C08 0 CODE 0
125 C0B 0 CODE 0
132 C0D 0 CODE 0
mcc_generated_files/pin_manager.c
128 BFB 0 CODE 0
131 BFB 0 CODE 0
133 BFE 0 CODE 0
135 C00 0 CODE 0
140 C91 0 CODE 0
145 C91 0 CODE 0
147 C96 0 CODE 0
149 C9B 0 CODE 0
150 C9D 0 CODE 0
exchange.c
21 C84 0 CODE 0
22 C84 0 CODE 0
23 C87 0 CODE 0
24 C8A 0 CODE 0
25 C8D 0 CODE 0
27 C90 0 CODE 0
mcc_generated_files/pin_manager.c
162 BC8 0 CODE 0
165 BC8 0 CODE 0
i2c.c
236 2F8 0 CODE 0
243 2F8 0 CODE 0
247 2F9 0 CODE 0
250 2FC 0 CODE 0
251 2FD 0 CODE 0
252 2FF 0 CODE 0
255 308 0 CODE 0
263 30A 0 CODE 0
265 30A 0 CODE 0
268 30C 0 CODE 0
269 310 0 CODE 0
270 317 0 CODE 0
272 31C 0 CODE 0
275 320 0 CODE 0
278 324 0 CODE 0
283 328 0 CODE 0
286 329 0 CODE 0
289 32C 0 CODE 0
293 32D 0 CODE 0
296 32F 0 CODE 0
301 335 0 CODE 0
313 336 0 CODE 0
315 336 0 CODE 0
317 339 0 CODE 0
318 33E 0 CODE 0
319 341 0 CODE 0
323 342 0 CODE 0
326 34C 0 CODE 0
330 34F 0 CODE 0
331 353 0 CODE 0
335 354 0 CODE 0
341 359 0 CODE 0
343 359 0 CODE 0
345 35C 0 CODE 0
346 361 0 CODE 0
347 364 0 CODE 0
348 365 0 CODE 0
352 365 0 CODE 0
356 366 0 CODE 0
359 36F 0 CODE 0
362 370 0 CODE 0
383 373 0 CODE 0
386 376 0 CODE 0
387 37E 0 CODE 0
388 385 0 CODE 0
414 38C 0 CODE 0
415 38F 0 CODE 0
418 392 0 CODE 0
419 396 0 CODE 0
428 397 0 CODE 0
431 397 0 CODE 0
434 39A 0 CODE 0
437 39F 0 CODE 0
440 3A1 0 CODE 0
442 3A4 0 CODE 0
446 3A5 0 CODE 0
451 3AB 0 CODE 0
454 3AF 0 CODE 0
456 3B3 0 CODE 0
457 3B6 0 CODE 0
458 3B7 0 CODE 0
466 3B7 0 CODE 0
476 3BA 0 CODE 0
481 3C6 0 CODE 0
484 3C6 0 CODE 0
488 3C9 0 CODE 0
491 3CE 0 CODE 0
494 3D1 0 CODE 0
495 3D3 0 CODE 0
496 3D4 0 CODE 0
498 3D4 0 CODE 0
499 3D5 0 CODE 0
508 3DB 0 CODE 0
511 3DF 0 CODE 0
513 3E1 0 CODE 0
518 3E2 0 CODE 0
521 3EF 0 CODE 0
528 3F3 0 CODE 0
531 3F5 0 CODE 0
532 3FA 0 CODE 0
533 3FB 0 CODE 0
538 3FB 0 CODE 0
540 3FD 0 CODE 0
544 3FF 0 CODE 0
545 401 0 CODE 0
551 402 0 CODE 0
552 405 0 CODE 0
558 406 0 CODE 0
559 40A 0 CODE 0
560 40D 0 CODE 0
562 40E 0 CODE 0
563 43A 0 CODE 0
583 DAA 0 CODE 0
586 DAB 0 CODE 0
589 DAD 0 CODE 0
592 DB5 0 CODE 0
596 DC0 0 CODE 0
598 DC1 0 CODE 0
565 D2B 0 CODE 0
569 D2B 0 CODE 0
572 D30 0 CODE 0
574 D34 0 CODE 0
575 D38 0 CODE 0
576 D39 0 CODE 0
578 D39 0 CODE 0
581 D3B 0 CODE 0
742 BCA 0 CODE 0
745 BCA 0 CODE 0
746 BCB 0 CODE 0
