# 1 "mcc_generated_files/device_config.c"
# 1 "<built-in>" 1
# 1 "<built-in>" 3
# 288 "<built-in>" 3
# 1 "<command line>" 1
# 1 "<built-in>" 2
# 1 "C:\\Program Files (x86)\\Microchip\\xc8\\v2.05\\pic\\include\\language_support.h" 1 3
# 2 "<built-in>" 2
# 1 "mcc_generated_files/device_config.c" 2
# 50 "mcc_generated_files/device_config.c"
#pragma config FOSC = INTOSC
#pragma config PWRTE = ON
#pragma config MCLRE = OFF
#pragma config CP = OFF
#pragma config BOREN = ON
#pragma config CLKOUTEN = OFF


#pragma config WRT = OFF
#pragma config PPS1WAY = ON
#pragma config ZCD = OFF
#pragma config PLLEN = ON
#pragma config STVREN = ON
#pragma config BORV = LO
#pragma config LPBOR = OFF
#pragma config LVP = OFF


#pragma config WDTCPS = WDTCPS1F
#pragma config WDTE = OFF
#pragma config WDTCWS = WDTCWSSW
#pragma config WDTCCS = SWC
# 71 "mcc_generated_files/device_config.c"

